exercise05/status/status.vcd
$date
    Jun  4, 2025  16:17:47
$end
$comment
	SimVision SST: 4c533407f939851cb844a6d0dba1b3d2
$end
$version
    TOOL:	xmsim(64)	22.09-s007
$end
$timescale
    1 fs
$end

$scope module tb_status $end
$var reg       1 !    clk_i $end
$var reg       1 "    rst_ni $end
$var reg       8 #    data_i [7:0] $end
$var reg      15 $    fourteen_seg_o [14:0] $end

$scope module i_dut $end
$var wire      1 %    clk_i  $end
$var wire      1 &    rst_ni  $end
$var wire      8 '    data_i [7:0] $end
$var reg      15 (    fourteen_seg_out [14:0] $end
$var reg       8 )    data_signed_i [7:0] $end
$var parameter 15 *    CHAR_R [14:0] $end
$var parameter 15 +    CHAR_O [14:0] $end
$var parameter 15 ,    CHAR_W [14:0] $end
$var parameter 15 -    CHAR_W_D [14:0] $end
$var parameter 15 .    CHAR_C [14:0] $end
$var parameter 15 /    CHAR_C_D [14:0] $end
$var reg       3 0    current_state [2:0] $end
$var reg       3 1    next_state [2:0] $end
$upscope $end

$upscope $end

$enddefinitions $end
$dumpvars
b100111000000001 /
b100111000000000 .
b11011000001011 -
b11011000001010 ,
b111111000001010 +
b110011110000010 *
0!
0"
b0 #
b110011110000010 $
0%
0&
b0 '
b110011110000010 (
b0 )
b0 0
b1 1
$end
#7500000
1!
1%
#15000000
0!
0%
#20000000
1"
1&
#22500000
1!
b1010 #
b1010 '
1%
b1010 )
b1 0
b111111000001010 (
b111111000001010 $
#30000000
0!
0%
#37500000
1!
b110010 #
b110010 '
1%
b110010 )
b10 1
b10 0
b11011000001010 (
b11011000001010 $
#45000000
0!
0%
#52500000
1!
b11101100 #
b11101100 '
1%
b11101100 )
b100 1
b100 0
b100111000000000 (
b100111000000000 $
#60000000
0!
0%
#67500000
1!
b11000100 #
b11000100 '
1%
b11000100 )
b101 1
b101 0
b100111000000001 (
b0 1
b100111000000001 $
#75000000
0!
0%
#82500000
1!
1%
b0 0
b110011110000010 (
b100 1
b110011110000010 $
#90000000
0!
0%
#97500000
1!
b1000110 #
b1000110 '
1%
b1000110 )
b10 1
b10 0
b11011000001010 (
b11 1
b11011000001010 $
#105000000
0!
0%
#112500000
1!
1%
b11 0
b11011000001011 (
b0 1
b11011000001011 $
#120000000
0!
0%
#127500000
1!
1%
b0 0
b110011110000010 (
b10 1
b110011110000010 $
#135000000
0!
0%
#142500000
1!
b0 #
b0 '
1%
b0 )
b1 1
b1 0
b111111000001010 (
b111111000001010 $
