exercise08/clocked_ripple_carry/post_clocked_ripple_carry.vcd
$date
    Jul 13, 2025  20:08:48
$end
$comment
	SimVision SST: 4c533407f939851cb844a6d0dba1b3d2
$end
$version
    TOOL:	xmsim(64)	22.09-s007
$end
$timescale
    10 ps
$end

$scope module tb_clocked_ripple_carry $end
$var real     64 !    WT $end
$var parameter 32 "    N $end
$var real     64 #    CLK $end
$var reg       1 $    clk_i $end
$var reg       1 %    rst_ni $end
$var reg       8 &    a_i [7:0] $end
$var reg       8 '    b_i [7:0] $end
$var reg       8 (    o_o [7:0] $end
$var reg       8 )    expected_o_o [7:0] $end
$var reg       1 *    c_o $end
$var reg       1 +    expected_c_o $end

$scope module i_dut $end
$var wire      1 ,    clk_i  $end
$var wire      1 -    rst_ni  $end
$var wire      1 .    a_i [7] $end
$var wire      1 /    a_i [6] $end
$var wire      1 0    a_i [5] $end
$var wire      1 1    a_i [4] $end
$var wire      1 2    a_i [3] $end
$var wire      1 3    a_i [2] $end
$var wire      1 4    a_i [1] $end
$var wire      1 5    a_i [0] $end
$var wire      1 6    b_i [7] $end
$var wire      1 7    b_i [6] $end
$var wire      1 8    b_i [5] $end
$var wire      1 9    b_i [4] $end
$var wire      1 :    b_i [3] $end
$var wire      1 ;    b_i [2] $end
$var wire      1 <    b_i [1] $end
$var wire      1 =    b_i [0] $end
$var wire      1 >    o_o [7] $end
$var wire      1 ?    o_o [6] $end
$var wire      1 @    o_o [5] $end
$var wire      1 A    o_o [4] $end
$var wire      1 B    o_o [3] $end
$var wire      1 C    o_o [2] $end
$var wire      1 D    o_o [1] $end
$var wire      1 E    o_o [0] $end
$var wire      1 F    c_o  $end
$var wire      1 G    sum [7] $end
$var wire      1 H    sum [6] $end
$var wire      1 I    sum [5] $end
$var wire      1 J    sum [4] $end
$var wire      1 K    sum [3] $end
$var wire      1 L    sum [2] $end
$var wire      1 M    sum [1] $end
$var wire      1 N    sum [0] $end
$var wire      1 O    UNCONNECTED  $end
$var wire      1 P    UNCONNECTED0  $end
$var wire      1 Q    UNCONNECTED1  $end
$var wire      1 R    UNCONNECTED2  $end
$var wire      1 S    UNCONNECTED3  $end
$var wire      1 T    UNCONNECTED4  $end
$var wire      1 U    UNCONNECTED5  $end
$var wire      1 V    UNCONNECTED6  $end
$var wire      1 W    UNCONNECTED7  $end
$var wire      1 X    carry  $end

$scope module ripple_carry_inst $end
$var wire      1 .    a_i [7] $end
$var wire      1 /    a_i [6] $end
$var wire      1 0    a_i [5] $end
$var wire      1 1    a_i [4] $end
$var wire      1 2    a_i [3] $end
$var wire      1 3    a_i [2] $end
$var wire      1 4    a_i [1] $end
$var wire      1 5    a_i [0] $end
$var wire      1 6    b_i [7] $end
$var wire      1 7    b_i [6] $end
$var wire      1 8    b_i [5] $end
$var wire      1 9    b_i [4] $end
$var wire      1 :    b_i [3] $end
$var wire      1 ;    b_i [2] $end
$var wire      1 <    b_i [1] $end
$var wire      1 =    b_i [0] $end
$var wire      1 Y    c_i  $end
$var wire      1 X    c_o  $end
$var wire      1 G    o_o [7] $end
$var wire      1 H    o_o [6] $end
$var wire      1 I    o_o [5] $end
$var wire      1 J    o_o [4] $end
$var wire      1 K    o_o [3] $end
$var wire      1 L    o_o [2] $end
$var wire      1 M    o_o [1] $end
$var wire      1 N    o_o [0] $end
$var wire      1 Z    C [8] $end
$var wire      1 [    C [7] $end
$var wire      1 \    C [6] $end
$var wire      1 ]    C [5] $end
$var wire      1 ^    C [4] $end
$var wire      1 _    C [3] $end
$var wire      1 `    C [2] $end
$var wire      1 a    C [1] $end
$var wire      1 b    C [0] $end
$var wire      1 c    S [7] $end
$var wire      1 d    S [6] $end
$var wire      1 e    S [5] $end
$var wire      1 f    S [4] $end
$var wire      1 g    S [3] $end
$var wire      1 h    S [2] $end
$var wire      1 i    S [1] $end
$var wire      1 j    S [0] $end
$var wire      1 k    n_0  $end
$var wire      1 l    n_1  $end
$var wire      1 m    n_2  $end
$var wire      1 n    n_3  $end
$var wire      1 o    n_4  $end
$var wire      1 p    n_5  $end
$var wire      1 q    n_6  $end
$var wire      1 r    n_7  $end
$var wire      1 s    n_8  $end
$var wire      1 t    n_25  $end
$var wire      1 u    n_28  $end
$var wire      1 v    n_31  $end
$var wire      1 w    n_34  $end
$var wire      1 x    n_37  $end
$var wire      1 y    n_40  $end
$var wire      1 z    n_43  $end
$var wire      1 {    n_46  $end

$scope module g228__2398 $end
$var wire      1 r    A1  $end
$var wire      1 s    A2  $end
$var wire      1 a    ZN  $end
$var wire      1 |    i_10  $end
$upscope $end


$scope module g229__5107 $end
$var wire      1 b    A  $end
$var wire      1 5    B1  $end
$var wire      1 =    B2  $end
$var wire      1 s    ZN  $end
$var wire      1 }    i_8  $end
$var wire      1 ~    i_9  $end
$upscope $end


$scope module g230__6260 $end
$var wire      1 =    A  $end
$var wire      1 5    B  $end
$var wire      1 {    Z  $end
$upscope $end


$scope module g231__4319 $end
$var wire      1 5    A1  $end
$var wire      1 =    A2  $end
$var wire      1 r    ZN  $end
$var wire      1 !!   i_10  $end
$upscope $end


$scope module g161 $end
$var wire      1 q    A  $end
$var wire      1 `    ZN  $end
$upscope $end


$scope module g162__8428 $end
$var wire      1 a    A1  $end
$var wire      1 z    A2  $end
$var wire      1 4    B1  $end
$var wire      1 <    B2  $end
$var wire      1 q    ZN  $end
$var wire      1 "!   i_12  $end
$var wire      1 #!   i_14  $end
$var wire      1 $!   i_13  $end
$upscope $end


$scope module g163__5526 $end
$var wire      1 <    A  $end
$var wire      1 4    B  $end
$var wire      1 z    Z  $end
$upscope $end


$scope module g232 $end
$var wire      1 p    A  $end
$var wire      1 _    ZN  $end
$upscope $end


$scope module g233__6783 $end
$var wire      1 `    A1  $end
$var wire      1 y    A2  $end
$var wire      1 3    B1  $end
$var wire      1 ;    B2  $end
$var wire      1 p    ZN  $end
$var wire      1 %!   i_12  $end
$var wire      1 &!   i_14  $end
$var wire      1 '!   i_13  $end
$upscope $end


$scope module g234__3680 $end
$var wire      1 ;    A  $end
$var wire      1 3    B  $end
$var wire      1 y    Z  $end
$upscope $end


$scope module g235 $end
$var wire      1 o    A  $end
$var wire      1 ^    ZN  $end
$upscope $end


$scope module g236__1617 $end
$var wire      1 _    A1  $end
$var wire      1 x    A2  $end
$var wire      1 2    B1  $end
$var wire      1 :    B2  $end
$var wire      1 o    ZN  $end
$var wire      1 (!   i_12  $end
$var wire      1 )!   i_14  $end
$var wire      1 *!   i_13  $end
$upscope $end


$scope module g237__2802 $end
$var wire      1 :    A  $end
$var wire      1 2    B  $end
$var wire      1 x    Z  $end
$upscope $end


$scope module g238 $end
$var wire      1 n    A  $end
$var wire      1 ]    ZN  $end
$upscope $end


$scope module g239__1705 $end
$var wire      1 ^    A1  $end
$var wire      1 w    A2  $end
$var wire      1 1    B1  $end
$var wire      1 9    B2  $end
$var wire      1 n    ZN  $end
$var wire      1 +!   i_12  $end
$var wire      1 ,!   i_14  $end
$var wire      1 -!   i_13  $end
$upscope $end


$scope module g240__5122 $end
$var wire      1 9    A  $end
$var wire      1 1    B  $end
$var wire      1 w    Z  $end
$upscope $end


$scope module g241 $end
$var wire      1 m    A  $end
$var wire      1 \    ZN  $end
$upscope $end


$scope module g242__8246 $end
$var wire      1 ]    A1  $end
$var wire      1 v    A2  $end
$var wire      1 0    B1  $end
$var wire      1 8    B2  $end
$var wire      1 m    ZN  $end
$var wire      1 .!   i_12  $end
$var wire      1 /!   i_14  $end
$var wire      1 0!   i_13  $end
$upscope $end


$scope module g243__7098 $end
$var wire      1 8    A  $end
$var wire      1 0    B  $end
$var wire      1 v    Z  $end
$upscope $end


$scope module g244 $end
$var wire      1 l    A  $end
$var wire      1 [    ZN  $end
$upscope $end


$scope module g245__6131 $end
$var wire      1 \    A1  $end
$var wire      1 u    A2  $end
$var wire      1 /    B1  $end
$var wire      1 7    B2  $end
$var wire      1 l    ZN  $end
$var wire      1 1!   i_12  $end
$var wire      1 2!   i_14  $end
$var wire      1 3!   i_13  $end
$upscope $end


$scope module g246__1881 $end
$var wire      1 7    A  $end
$var wire      1 /    B  $end
$var wire      1 u    Z  $end
$upscope $end


$scope module g247 $end
$var wire      1 k    A  $end
$var wire      1 Z    ZN  $end
$upscope $end


$scope module g248__5115 $end
$var wire      1 [    A1  $end
$var wire      1 t    A2  $end
$var wire      1 .    B1  $end
$var wire      1 6    B2  $end
$var wire      1 k    ZN  $end
$var wire      1 4!   i_12  $end
$var wire      1 5!   i_14  $end
$var wire      1 6!   i_13  $end
$upscope $end


$scope module g249__7482 $end
$var wire      1 6    A  $end
$var wire      1 .    B  $end
$var wire      1 t    Z  $end
$upscope $end


$scope module g34_g113__4733 $end
$var wire      1 ^    A  $end
$var wire      1 w    B  $end
$var wire      1 f    Z  $end
$upscope $end


$scope module g34_g114__6161 $end
$var wire      1 ]    A  $end
$var wire      1 v    B  $end
$var wire      1 e    Z  $end
$upscope $end


$scope module g34_g115__9315 $end
$var wire      1 [    A  $end
$var wire      1 t    B  $end
$var wire      1 c    Z  $end
$upscope $end


$scope module g34_g116__9945 $end
$var wire      1 {    A  $end
$var wire      1 b    B  $end
$var wire      1 j    Z  $end
$upscope $end


$scope module g34_g117__2883 $end
$var wire      1 `    A  $end
$var wire      1 y    B  $end
$var wire      1 h    Z  $end
$upscope $end


$scope module g34_g118__2346 $end
$var wire      1 \    A  $end
$var wire      1 u    B  $end
$var wire      1 d    Z  $end
$upscope $end


$scope module g34_g119__1666 $end
$var wire      1 _    A  $end
$var wire      1 x    B  $end
$var wire      1 g    Z  $end
$upscope $end


$scope module g34_g120__7410 $end
$var wire      1 a    A  $end
$var wire      1 z    B  $end
$var wire      1 i    Z  $end
$upscope $end

$upscope $end


$scope module \o_o_reg[7]  $end
$var wire      1 G    D  $end
$var wire      1 -    RN  $end
$var wire      1 ,    CK  $end
$var wire      1 >    Q  $end
$var wire      1 O    QN  $end
$var reg       1 7!   NOTIFIER $end
$var wire      1 8!   nextstate  $end
$var wire      1 9!   IQ  $end
$var wire      1 :!   IQN  $end
$upscope $end


$scope module \o_o_reg[6]  $end
$var wire      1 H    D  $end
$var wire      1 -    RN  $end
$var wire      1 ,    CK  $end
$var wire      1 ?    Q  $end
$var wire      1 P    QN  $end
$var reg       1 ;!   NOTIFIER $end
$var wire      1 <!   nextstate  $end
$var wire      1 =!   IQ  $end
$var wire      1 >!   IQN  $end
$upscope $end


$scope module \o_o_reg[4]  $end
$var wire      1 J    D  $end
$var wire      1 -    RN  $end
$var wire      1 ,    CK  $end
$var wire      1 A    Q  $end
$var wire      1 Q    QN  $end
$var reg       1 ?!   NOTIFIER $end
$var wire      1 @!   nextstate  $end
$var wire      1 A!   IQ  $end
$var wire      1 B!   IQN  $end
$upscope $end


$scope module \o_o_reg[0]  $end
$var wire      1 N    D  $end
$var wire      1 -    RN  $end
$var wire      1 ,    CK  $end
$var wire      1 E    Q  $end
$var wire      1 R    QN  $end
$var reg       1 C!   NOTIFIER $end
$var wire      1 D!   nextstate  $end
$var wire      1 E!   IQ  $end
$var wire      1 F!   IQN  $end
$upscope $end


$scope module \o_o_reg[2]  $end
$var wire      1 L    D  $end
$var wire      1 -    RN  $end
$var wire      1 ,    CK  $end
$var wire      1 C    Q  $end
$var wire      1 S    QN  $end
$var reg       1 G!   NOTIFIER $end
$var wire      1 H!   nextstate  $end
$var wire      1 I!   IQ  $end
$var wire      1 J!   IQN  $end
$upscope $end


$scope module \o_o_reg[3]  $end
$var wire      1 K    D  $end
$var wire      1 -    RN  $end
$var wire      1 ,    CK  $end
$var wire      1 B    Q  $end
$var wire      1 T    QN  $end
$var reg       1 K!   NOTIFIER $end
$var wire      1 L!   nextstate  $end
$var wire      1 M!   IQ  $end
$var wire      1 N!   IQN  $end
$upscope $end


$scope module \o_o_reg[5]  $end
$var wire      1 I    D  $end
$var wire      1 -    RN  $end
$var wire      1 ,    CK  $end
$var wire      1 @    Q  $end
$var wire      1 U    QN  $end
$var reg       1 O!   NOTIFIER $end
$var wire      1 P!   nextstate  $end
$var wire      1 Q!   IQ  $end
$var wire      1 R!   IQN  $end
$upscope $end


$scope module \o_o_reg[1]  $end
$var wire      1 M    D  $end
$var wire      1 -    RN  $end
$var wire      1 ,    CK  $end
$var wire      1 D    Q  $end
$var wire      1 V    QN  $end
$var reg       1 S!   NOTIFIER $end
$var wire      1 T!   nextstate  $end
$var wire      1 U!   IQ  $end
$var wire      1 V!   IQN  $end
$upscope $end


$scope module c_o_reg $end
$var wire      1 X    D  $end
$var wire      1 -    RN  $end
$var wire      1 ,    CK  $end
$var wire      1 F    Q  $end
$var wire      1 W    QN  $end
$var reg       1 W!   NOTIFIER $end
$var wire      1 X!   nextstate  $end
$var wire      1 Y!   IQ  $end
$var wire      1 Z!   IQN  $end
$upscope $end

$upscope $end

$upscope $end

$enddefinitions $end
$dumpvars
r0.1 #
b1000 "
r10 !
0$
0%
b0 &
b0 '
bx (
bx )
x*
x+
0,
0-
0.
0/
00
01
02
03
04
05
06
07
08
09
0:
0;
0<
0=
x>
x?
x@
xA
xB
xC
xD
xE
xF
xG
xH
xI
xJ
xK
xL
xM
xN
xO
xP
xQ
xR
xS
xT
xU
xV
xW
xX
0Y
xZ
x[
x\
x]
x^
x_
x`
xa
0b
xc
xd
xe
xf
xg
xh
xi
xj
xk
xl
xm
xn
xo
xp
xq
xr
xs
xt
xu
xv
xw
xx
xy
xz
x{
x|
0}
0~
0!!
x"!
0#!
x$!
x%!
0&!
x'!
x(!
0)!
x*!
x+!
0,!
x-!
x.!
0/!
x0!
x1!
02!
x3!
x4!
05!
x6!
x7!
x8!
09!
1:!
x;!
x<!
0=!
1>!
x?!
x@!
0A!
1B!
xC!
xD!
0E!
1F!
xG!
xH!
0I!
1J!
xK!
xL!
0M!
1N!
xO!
xP!
0Q!
1R!
xS!
xT!
0U!
1V!
xW!
xX!
0Y!
1Z!
$end
#10
1s
1W
1V
1U
1T
1S
1R
1Q
1P
1O
0>
0?
0A
0E
0C
0B
0@
0D
0F
1r
0{
0z
0y
0x
0w
0v
0u
0t
06!
03!
00!
0-!
0*!
0'!
0$!
1|
0"!
0%!
0(!
0+!
0.!
01!
04!
1$
b0 (
0*
1%
1-
1,
xY!
xU!
xQ!
xM!
xI!
xE!
xA!
x=!
x9!
x:!
x>!
xB!
xF!
xJ!
xN!
xR!
xV!
xZ!
#20
xW
xV
xU
xT
xS
xR
xQ
xP
xO
x>
x?
xA
xE
xC
xB
x@
xD
xF
1k
1l
1m
1n
1o
1p
1q
0a
0j
0N
0D!
0$
bx (
x*
0,
#30
0i
0`
0_
0^
0]
0\
0[
0Z
0X
0M
0T!
0X!
1$
1,
0Y!
0U!
0E!
1F!
1V!
1Z!
#40
1W
1V
1R
0E
0D
0F
0c
0d
0e
0f
0g
0h
0L
0K
0J
0I
0H
0G
08!
0<!
0P!
0@!
0L!
0H!
0$
bx00 (
0*
0,
#50
1$
1,
0Q!
0M!
0I!
0A!
0=!
09!
1:!
1>!
1B!
1J!
1N!
1R!
#60
1U
1T
1S
1Q
1P
1O
0>
0?
0A
0C
0B
0@
0$
b0 (
0,
#70
1$
1,
#80
0$
0,
#90
1$
1,
#100
0$
0,
#110
1$
1,
#120
0$
0,
#130
1$
1,
#140
0$
0,
#150
1$
1,
#160
0$
0,
#170
1$
1,
#180
0$
0,
#190
1$
1,
#200
0$
0,
#210
1$
1,
#220
0$
0,
#230
1$
1,
#240
0$
0,
#250
1$
1,
#260
0$
0,
#270
1$
1,
#280
0$
0,
#290
1$
1,
#300
0$
0,
#310
1$
1,
#320
0$
0,
#330
1$
1,
#340
0$
0,
#350
1$
1,
#360
0$
0,
#370
1$
1,
#380
0$
0,
#390
1$
1,
#400
0$
0,
#410
1$
1,
#420
0$
0,
#430
1$
1,
#440
0$
0,
#450
1$
1,
#460
0$
0,
#470
1$
1,
#480
0$
0,
#490
1$
1,
#500
0$
0,
#510
1$
1,
#520
0$
0,
#530
1$
1,
#540
0$
0,
#550
1$
1,
#560
0$
0,
#570
1$
1,
#580
0$
0,
#590
1$
1,
#600
0$
0,
#610
1$
1,
#620
0$
0,
#630
1$
1,
#640
0$
0,
#650
1$
1,
#660
0$
0,
#670
1$
1,
#680
0$
0,
#690
1$
1,
#700
0$
0,
#710
1$
1,
#720
0$
0,
#730
1$
1,
#740
0$
0,
#750
1$
1,
#760
0$
0,
#770
1$
1,
#780
0$
0,
#790
1$
1,
#800
0$
0,
#810
1$
1,
#820
0$
0,
#830
1$
1,
#840
0$
0,
#850
1$
1,
#860
0$
0,
#870
1$
1,
#880
0$
0,
#890
1$
1,
#900
0$
0,
#910
1$
1,
#920
0$
0,
#930
1$
1,
#940
0$
0,
#950
1$
1,
#960
0$
0,
#970
1$
1,
#980
0$
0,
#990
1$
1,
#1000
0$
0,
#1010
1$
b10101010 &
b1 '
b0 )
0+
1=
1.
10
12
14
1,
1~
#1020
1z
1x
1v
1t
1{
0$
0,
#1030
1j
1c
1e
1g
1i
1M
1K
1I
1G
1N
1D!
18!
1P!
1L!
1T!
1$
1,
1U!
1Q!
1M!
1E!
19!
0:!
0F!
0N!
0R!
0V!
#1040
0V
0U
0T
0R
0O
1>
1E
1B
1@
1D
0$
b10101011 (
0,
